{
  "artifactGenerations" : [ ],
  "artifactId" : "legend-acct",
  "groupId" : "org.cicc",
  "metamodelDependencies" : [ ],
  "projectDependencies" : [ ],
  "projectId" : "UAT-29869199",
  "projectStructureVersion" : {
    "extensionVersion" : 1,
    "version" : 11
  },
  "projectType" : "PROTOTYPE"
}